…
</p>

</details>

``` r
c14 
```

    ##  Radiocarbon date list
    ##  dates       405 
    ## 
    ## # A tibble: 405 x 4
    ##       id       x        y       z
    ##    <int>   <dbl>    <dbl>   <dbl>
    ##  1     1 450331. 1284303. 1920000
    ##  2     2 450331. 1284303. 2596000
    ##  3     3 450331. 1284303. 2360000
    ##  4     4 450331. 1284303. 2380000
    ##  5     5 434150. 1278776. 2810000
    ##  6     6 434150. 1278776. 2710000
    ##  7     7 434150. 1278776. 1860000
    ##  8     8 434150. 1278776. 1960000
    ##  9     9 434150. 1278776. 2820000
    ## 10    10 434150. 1278776. 2110000
    ## # … with 395 more rows
…
